[
    {
        "title": "Mow ",
        "project": "House Chores",
        "elapsed": 232901029,
        "id": "0a4a79cb-b06d-4cb1-883d-549a1e3b66d7",
        "runningSince": null
    },
    {
        "title": "Clear paper jam",
        "project": "Office Chores",
        "elapsed": 37445218310,
        "id": "a73c1d19-f32d-4aff-b470-cea4e792406a",
        "runningSince": null
    },
    {
        "title": "derp",
        "project": "derpderp",
        "id": "29f861fb-7f39-465e-91ae-a0517a2292a4",
        "elapsed": 7540,
        "runningSince": null
    }
]